__  __ _               _____                                  
 |  \/  (_)             / ____|                                 
 | \  / |_ _ __   ___  | (_____      _____  ___ _ __   ___ _ __ 
 | |\/| | | '_ \ / _ \  \___ \ \ /\ / / _ \/ _ \ '_ \ / _ \ '__|
 | |  | | | | | |  __/  ____) \ V  V /  __/  __/ |_) |  __/ |   
 |_|  |_|_|_| |_|\___| |_____/ \_/\_/ \___|\___| .__/ \___|_|   
                                               | |              
                                               |_|